19.455252918287954, 0.4630350194552477
23.3463035019455, 2.7710266387309304
35.1298396666391, 4.826761215162577
51.42073939159792, 6.4033007770072174
54.25393934376467, 8.671931154090274
58.5037392720148, 9.932487194346606
67.00333912851505, 11.823484708574526
71.25313905676518, 13.46210948860174
76.91953896109868, 15.310881426619488
84.00253884151562, 17.999915088912516
96.751938626266, 20.521354077111994
105.25153848276625, 21.53019119854123
110.91793838709975, 23.37896313655895
119.4175382436, 25.90007521707166
127.91713810010026, 28.337172022079713
135.0001379805172, 30.858175133363474
143.49973783701745, 33.0012184741053
151.9993376935177, 34.89221598833322
164.74873747826814, 36.15342584396315
168.99853740651827, 37.79205062399035
177.49813726301852, 39.43100231170436
185.99773711951877, 41.57404565244617
198.74713690426915, 42.457186768305235
202.99693683251928, 43.84376572181854
207.2467367607694, 45.230344675331835
212.91313666510302, 46.74305551133102
224.24593647376992, 48.00415639773202
228.49573640202004, 49.390735351245326
236.9953362585204, 51.155709952216284
245.49493611502066, 53.046707466444204
258.24433589977104, 54.812008975101946
270.9937356845214, 56.70333339701665
280.90993551710505, 58.678455155978114
292.24273532577206, 60.107586593388405
297.9091352301057, 61.70431270489222
316.0416149239728, 63.99092300474864
331.9075346561067, 65.73966119060911
343.2403344647737, 66.66470097499156
347.4901343930238, 68.05127992850487
355.9897342495241, 69.94227744273277
375.1138339266497, 72.08613805269158
398.48773353202535, 74.23032557033716
415.48693324502597, 75.36583942039692
428.23633302977635, 77.0051180157977
449.485332671027, 78.26698168680122
470.7343323122776, 79.44483008230006
496.2331318817784, 80.95906648750426
521.7319314512793, 82.05322651518529
547.23073102078, 82.64329488983847
572.7295305902808, 83.65343964201486
598.2283301597816, 84.66358439419123
623.7271297292824, 85.6737291463676
649.2259292987832, 86.17978224551617
674.7247288682839, 86.93788117117863
700.2235284377847, 87.61196482133646
725.7223280072855, 88.11801792048502
751.2211275767864, 88.7080862951382
776.7199271462872, 89.38216994529603
802.218726715788, 89.88822304444459
827.7175262852887, 90.39427614359315
853.2163258547895, 90.81631396723705
878.7151254242902, 91.32236706638561
904.213924993791, 91.74440489002953
929.712724563292, 92.502503815692
955.2115241327928, 93.09257219034518
980.7103237022935, 93.51461001398911
1006.2091232717943, 94.02066311313766
1031.707922841295, 94.27467038577231
1057.206722410796, 94.78072348492086
1082.7055219802965, 95.11874603306013
1108.2043215497974, 95.6247991322087
1133.7031211192984, 96.38289805787116
1159.201920688799, 97.14099698353363
1184.7007202583, 97.64705008268217
1210.1995198278005, 98.06908790632609
1235.6983193973015, 98.65915628097929
1261.197118966802, 99.16520938012783
1286.695918536303, 99.58724720377175
1312.194718105804, 100.00928502741567
1337.6935176753045, 100.76738395307814
1363.1923172448055, 101.18942177672206
1388.691116814306, 101.69547487587062
1414.189916383807, 102.11751269951452
1439.6887159533076, 102.37151997214917
1456.6879156663085, 105.81745389858645
1456.6879156663085, 104.30517893950298
1456.6879156663085, 103.04494980693342
1465.1875155228086, 107.83447432607132
1490.6863150923095, 108.25651214971523
1516.18511466181, 108.3424888713406
1541.683914231311, 108.68051141947988
1567.1827138008116, 108.85050341660988
1592.6815133703126, 109.10451068924453
1618.1803129398131, 109.27450268637453
1643.679112509314, 109.19244885699062
1669.177912078815, 109.36244085412063
1694.6767116483156, 109.36440230024137
1720.1755112178166, 109.70242484838064
1745.6743107873176, 109.95643212101528
1771.1731103568181, 110.71453104667775
1796.6719099263191, 110.88452304380776
1822.1707094958197, 110.88648448992849
1847.6695090653207, 110.88844593604922
1873.1683086348212, 110.89040738216995
1898.6671082043222, 110.89236882829069
1924.1659077738232, 110.89433027441142
1949.6647073433237, 110.89629172053215
1975.1635069128247, 110.89825316665288
2000.6623064823252, 111.06824516378288
2026.1611060518262, 111.40626771192217
2051.6599056213267, 111.4082291580429
2077.1587051908277, 111.41019060416363
2102.6575047603287, 111.41215205028436
2128.1563043298293, 111.41411349640508
2153.6551038993302, 111.41607494252581
2179.153903468831, 111.41803638864654
2204.6527030383318, 111.50401311027191
2230.1515026078323, 111.421959280888
2255.6503021773333, 111.59195127801802
2281.1491017468343, 111.9299738261573
2306.647901316335, 111.93193527227803
2332.146700885836, 111.93389671839876
2357.6455004553363, 111.93585816451949
2383.1443000248373, 111.93781961064022
2408.643099594338, 111.93978105676095
2434.141899163839, 111.94174250288168
2459.64069873334, 111.94370394900241
2485.1394983028404, 112.02968067062778
2510.6382978723414, 112.36770321876706
2536.137097441842, 112.45367994039242
2561.635897011343, 112.45564138651315
2587.1346965808434, 112.45760283263388
2612.6334961503444, 112.6275948297639
2638.1322957198454, 112.71357155138926
2663.631095289346, 112.71553299751
2689.129894858847, 112.71749444363073
2714.6286944283474, 112.71945588975146
2740.1274939978484, 112.72141733587219
2765.626293567349, 112.72337878199292
2791.12509313685, 112.72534022811365
2816.623892706351, 112.72730167423438
2842.1226922758515, 112.72926312035511
2867.6214918453525, 112.73122456647584
2893.120291414853, 112.73318601259658
2918.619090984354, 112.73514745871731
2944.1178905538545, 112.73710890483804
2969.6166901233555, 112.73907035095877
2990.865689764606, 112.7407048893927
